{
  "type": "tab",
  "id": "ca1aa2f3.35e56",
  "label": "Sheet 1",
  "flow": [
    {
      "id": "31ce2ee1.ce31d2",
      "type": "twitter-client",
      "z": "ca1aa2f3.35e56",
      "name": "RedConnect App",
      "consumer_key": "jfL4AZtWNCRdwPrF6GefcjQwt",
      "consumer_secret": "Kt0pISXj8LmKxVbBOUY80pnpD98qewz58OoRzjyn3nEnebYued",
      "access_token_key": "4359350356-mKQugaQGRLLNZV2j2BxGVQm3T5fWoGgHy5nbJSy",
      "access_token_secret": "RMLifX8OsLkmeP4ss4Eh4a3lAelymCvdExPqdOjGk3mf4"
    },
    {
      "id": "72d1b905.8d2e48",
      "type": "twitter-search",
      "z": "ca1aa2f3.35e56",
      "creds": "31ce2ee1.ce31d2",
      "name": "",
      "q": "",
      "geocode": "",
      "lang": "",
      "result_type": "mixed",
      "count": "25",
      "until": "",
      "since_id": "",
      "max_id": "",
      "include_entities": "",
      "x": 546,
      "y": 672,
      "wires": [
        [
          "ac9a74df.536588"
        ]
      ]
    },
    {
      "id": "b28e1880.4d71e8",
      "type": "inject",
      "z": "ca1aa2f3.35e56",
      "name": "#internetofthings",
      "topic": "",
      "payload": "",
      "payloadType": "date",
      "repeat": "",
      "crontab": "0 0-22 * * *",
      "once": false,
      "x": 193,
      "y": 680,
      "wires": [
        [
          "cb5dfff.f34a2"
        ]
      ]
    },
    {
      "id": "ac9a74df.536588",
      "type": "function",
      "z": "ca1aa2f3.35e56",
      "name": "",
      "func": "var statuses = msg.payload.statuses || [];\n\nvar payload = [];\n\nvar sentence = function(str){\n    str = ' ' + str.toLowerCase() + ' ';\n    var common = [' the ',' of ',' and ',' to ',' a ',' in ',' is ',' i ',' that ',' it ',' for ',' you ',' was ',' with ',' on ',' as ',' have ',' but ',' be ',' they ',' my '];  \n    if (common.some(function(v) { return str.indexOf(v) >= 0; })) {\n        return true;\n    }\n    return false;\n};\n\nfor (var i = 0, l = statuses.length; i < l; i++) {\n    \n    var stat = statuses[i];\n    \n    if (!stat.retweeted &&\n        !stat.favorited &&\n        !stat.retweeted_status &&\n        stat.user.favourites_count > 10 &&\n        sentence(stat.text)\n    ) {\n        \n        var s = {\n            id: stat.id_str,\n            retweeted_status: stat.retweeted_status ? true : false,\n            retweeted: stat.retweeted,\n            favorited: stat.favorited,\n            text: stat.text,\n            url: 'https://twitter.com/'+stat.user.screen_name+'/status/'+stat.id_str,\n            sentence: sentence(stat.text)\n        };\n        payload.push(s);\n    }\n    \n}\n\nmsg.payload = payload;\n\n\nreturn msg;",
      "outputs": 1,
      "noerr": 0,
      "x": 702,
      "y": 679,
      "wires": [
        [
          "774b6d49.88b494",
          "f3b624de.0c49d8",
          "337c58e.fcc83a8"
        ]
      ]
    },
    {
      "id": "774b6d49.88b494",
      "type": "debug",
      "z": "ca1aa2f3.35e56",
      "name": "",
      "active": true,
      "console": "false",
      "complete": "false",
      "x": 933,
      "y": 548,
      "wires": []
    },
    {
      "id": "f3b624de.0c49d8",
      "type": "template",
      "z": "ca1aa2f3.35e56",
      "name": "",
      "field": "payload",
      "format": "handlebars",
      "template": "<ul>\n  {{#payload}}\n  <li><a href=\"{{url}}\" target=\"_blank\">{{text}}</a></li>\n  {{/payload}}\n</ul>",
      "x": 910,
      "y": 685,
      "wires": [
        [
          "19323aa0.e6cdc5"
        ]
      ]
    },
    {
      "id": "9d053cb4.62fac",
      "type": "http in",
      "z": "ca1aa2f3.35e56",
      "name": "",
      "url": "/search",
      "method": "get",
      "swaggerDoc": "",
      "x": 175,
      "y": 626,
      "wires": [
        [
          "aaaf2dde.5550d"
        ]
      ]
    },
    {
      "id": "19323aa0.e6cdc5",
      "type": "http response",
      "z": "ca1aa2f3.35e56",
      "name": "",
      "x": 1075,
      "y": 684,
      "wires": []
    },
    {
      "id": "aaaf2dde.5550d",
      "type": "function",
      "z": "ca1aa2f3.35e56",
      "name": "",
      "func": "var payload = msg.req.query;\nreturn msg;",
      "outputs": 1,
      "noerr": 0,
      "x": 344,
      "y": 554,
      "wires": [
        [
          "72d1b905.8d2e48"
        ]
      ]
    },
    {
      "id": "3820d120.c7df2e",
      "type": "twitter-favorite",
      "z": "ca1aa2f3.35e56",
      "creds": "31ce2ee1.ce31d2",
      "name": "",
      "tweet": "",
      "x": 739,
      "y": 810,
      "wires": [
        [
          "6f216599.90de9c"
        ]
      ]
    },
    {
      "id": "cb5dfff.f34a2",
      "type": "function",
      "z": "ca1aa2f3.35e56",
      "name": "",
      "func": "msg.payload = {q:'#internetofthings'};\nreturn msg;",
      "outputs": 1,
      "noerr": 0,
      "x": 340,
      "y": 602,
      "wires": [
        [
          "72d1b905.8d2e48"
        ]
      ]
    },
    {
      "id": "337c58e.fcc83a8",
      "type": "function",
      "z": "ca1aa2f3.35e56",
      "name": "",
      "func": "var tweet = msg.payload[0];\nmsg.payload = {tweet:tweet.id}\nreturn msg;",
      "outputs": 1,
      "noerr": 0,
      "x": 563,
      "y": 813,
      "wires": [
        [
          "3820d120.c7df2e"
        ]
      ]
    },
    {
      "id": "6f216599.90de9c",
      "type": "debug",
      "z": "ca1aa2f3.35e56",
      "name": "",
      "active": true,
      "console": "false",
      "complete": "false",
      "x": 952,
      "y": 803,
      "wires": []
    },
    {
      "id": "c7102b32.38efd8",
      "type": "inject",
      "z": "ca1aa2f3.35e56",
      "name": "#nodered",
      "topic": "",
      "payload": "",
      "payloadType": "date",
      "repeat": "",
      "crontab": "0 0-22 * * *",
      "once": false,
      "x": 189,
      "y": 732,
      "wires": [
        [
          "77210d2.f88def4"
        ]
      ]
    },
    {
      "id": "77210d2.f88def4",
      "type": "function",
      "z": "ca1aa2f3.35e56",
      "name": "",
      "func": "msg.payload = {q:'#nodered'};\nreturn msg;",
      "outputs": 1,
      "noerr": 0,
      "x": 340,
      "y": 650,
      "wires": [
        [
          "72d1b905.8d2e48"
        ]
      ]
    },
    {
      "id": "95c01e80.6a3fe",
      "type": "inject",
      "z": "ca1aa2f3.35e56",
      "name": "#mbaas",
      "topic": "",
      "payload": "",
      "payloadType": "date",
      "repeat": "",
      "crontab": "0 0-22 * * *",
      "once": false,
      "x": 188,
      "y": 777,
      "wires": [
        [
          "da8c8bfd.257378"
        ]
      ]
    },
    {
      "id": "da8c8bfd.257378",
      "type": "function",
      "z": "ca1aa2f3.35e56",
      "name": "",
      "func": "msg.payload = {q:'#mbaas'};\nreturn msg;",
      "outputs": 1,
      "noerr": 0,
      "x": 338,
      "y": 688,
      "wires": [
        [
          "72d1b905.8d2e48"
        ]
      ]
    },
    {
      "id": "595acbf9.a6a534",
      "type": "inject",
      "z": "ca1aa2f3.35e56",
      "name": "#iot",
      "topic": "",
      "payload": "",
      "payloadType": "date",
      "repeat": "",
      "crontab": "0 0-22 * * *",
      "once": false,
      "x": 181,
      "y": 832,
      "wires": [
        [
          "3ccc0818.c333f8"
        ]
      ]
    },
    {
      "id": "3ccc0818.c333f8",
      "type": "function",
      "z": "ca1aa2f3.35e56",
      "name": "",
      "func": "msg.payload = {q:'#iot'};\nreturn msg;",
      "outputs": 1,
      "noerr": 0,
      "x": 350,
      "y": 762,
      "wires": [
        [
          "72d1b905.8d2e48"
        ]
      ]
    },
    {
      "id": "3d44e8.ffc2bb18",
      "type": "inject",
      "z": "ca1aa2f3.35e56",
      "name": "#webofthings",
      "topic": "",
      "payload": "",
      "payloadType": "date",
      "repeat": "",
      "crontab": "0 0-22 * * *",
      "once": false,
      "x": 193,
      "y": 895,
      "wires": [
        [
          "d8f0c7b9.270f38"
        ]
      ]
    },
    {
      "id": "d8f0c7b9.270f38",
      "type": "function",
      "z": "ca1aa2f3.35e56",
      "name": "",
      "func": "msg.payload = {q:'#webofthings'};\nreturn msg;",
      "outputs": 1,
      "noerr": 0,
      "x": 334,
      "y": 870,
      "wires": [
        [
          "72d1b905.8d2e48"
        ]
      ]
    },
    {
      "id": "2edce449.d1231c",
      "type": "inject",
      "z": "ca1aa2f3.35e56",
      "name": "",
      "topic": "",
      "payload": "",
      "payloadType": "date",
      "repeat": "",
      "crontab": "",
      "once": false,
      "x": 205,
      "y": 477,
      "wires": [
        []
      ]
    }
  ]
}